<?xml version="1.0" encoding="utf-8"?>
<!-- Generator: Adobe Illustrator 24.1.2, SVG Export Plug-In . SVG Version: 6.00 Build 0)  -->
<svg version="1.1" id="Capa_1" xmlns="http://www.w3.org/2000/svg" xmlns:xlink="http://www.w3.org/1999/xlink" x="0px" y="0px"
	 viewBox="0 0 1980 800" style="enable-background:new 0 0 1980 800;" xml:space="preserve">
<style type="text/css">
	.st0{fill:#E8505B;}
	.st1{fill:none;stroke:#000000;stroke-miterlimit:10;}
	.st2{fill:#6EC3BE;}
	.st3{fill:none;stroke:#000000;stroke-width:0.75;stroke-miterlimit:10;}
	.st4{fill:#E1E1E1;}
</style>
<g id="Grupo_195" transform="translate(8.095 39.415) rotate(-107)">
	<path id="Trazado_8" class="st0" d="M-204.61,364.95"/>
	<g id="Grupo_5" transform="translate(0 0)">
		<path id="Trazado_9" class="st0" d="M-204.61,386.8c11.43,0,22.38-10.05,21.85-21.85c-0.53-11.84-9.59-21.85-21.85-21.85
			c-11.43,0-22.38,10.05-21.85,21.85C-225.93,376.79-216.86,386.79-204.61,386.8L-204.61,386.8z"/>
	</g>
</g>
<ellipse id="Elipse_12" class="st1" cx="426.77" cy="130.85" rx="24.05" ry="24.05"/>
<path id="Trazado_638" class="st2" d="M1363.77,301.39l-0.03,0.06c-0.58,1.37-0.47,2.91,0.32,4.18c1.35,2.1,4.11,3.22,4.11,3.22
	l4.6,2.27l-1.89,5.69c0,0-0.77,2.35-0.3,4.22c0.36,1.39,1.34,2.57,2.69,3.24c0.7,0.31,2.83,0.88,4.55-0.19
	c1.17-0.64,2.15-1.55,2.85-2.63c0.55-0.83,3.65-5.73,3.65-5.73l6.35,1.7c0,0,1.7,0.37,2.76,0.51c1.13,0.11,2.27-0.03,3.34-0.4
	c1.12-0.46,2.03-1.28,2.57-2.31c0.54-1.12,0.61-2.4,0.18-3.56c-0.38-1.04-1.37-2.4-3.5-3.56c-2.13-1.16-6.52-3.13-6.52-3.13
	s1.46-3.49,1.74-4.4c0.43-1.17,0.74-2.38,0.94-3.6c0.15-1.24-0.14-2.49-0.83-3.56c-0.9-1.23-1.41-1.52-2.92-1.99
	c-1.41-0.38-2.93-0.13-4.12,0.68c-1.25,0.87-2.29,1.98-3.05,3.25c-0.74,1.25-3.27,5.18-3.3,5.18c-0.03,0-5.61-1.61-6.81-1.76
	c-1.2-0.15-2-0.41-3.35-0.18c-1.23,0.18-2.36,0.75-3.2,1.62C1364.3,300.59,1364.01,300.98,1363.77,301.39z"/>
<path id="Trazado_639" class="st3" d="M1360.55,305.21l-0.03,0.06c-0.58,1.37-0.47,2.91,0.32,4.18c1.35,2.1,4.11,3.22,4.11,3.22
	l4.6,2.27l-1.89,5.69c0,0-0.77,2.35-0.3,4.22c0.36,1.39,1.34,2.57,2.69,3.24c0.7,0.31,2.83,0.88,4.55-0.19
	c1.17-0.64,2.15-1.55,2.85-2.63c0.55-0.83,3.65-5.73,3.65-5.73l6.35,1.7c0,0,1.7,0.37,2.76,0.51c1.13,0.11,2.27-0.03,3.34-0.4
	c1.12-0.46,2.03-1.28,2.57-2.31c0.54-1.12,0.61-2.4,0.18-3.56c-0.38-1.04-1.37-2.4-3.5-3.56c-2.13-1.16-6.52-3.13-6.52-3.13
	s1.46-3.49,1.74-4.4c0.43-1.17,0.74-2.38,0.94-3.6c0.15-1.24-0.14-2.49-0.83-3.56c-0.9-1.23-1.41-1.52-2.92-1.99
	c-1.41-0.38-2.93-0.13-4.12,0.68c-1.25,0.87-2.29,1.98-3.05,3.25c-0.74,1.25-3.27,5.18-3.3,5.18c-0.03,0-5.61-1.61-6.81-1.76
	c-1.2-0.15-2-0.41-3.35-0.18c-1.23,0.18-2.36,0.75-3.2,1.62C1361.08,304.41,1360.79,304.8,1360.55,305.21z"/>
<g id="Grupo_195_1_" transform="translate(8.095 39.415) rotate(-107)">
	<path id="Trazado_8_1_" class="st0" d="M-1075.08,1162.25"/>
	<g id="Grupo_5_1_" transform="translate(0 0)">
		<path id="Trazado_9_1_" class="st0" d="M-1075.08,1175.27c6.81,0,13.34-5.99,13.02-13.02c-0.32-7.05-5.72-13.02-13.02-13.02
			c-6.81,0-13.34,5.99-13.02,13.02C-1087.78,1169.31-1082.37,1175.27-1075.08,1175.27L-1075.08,1175.27z"/>
	</g>
</g>
<ellipse id="Elipse_12_1_" class="st3" cx="1438.66" cy="730.24" rx="14.34" ry="14.34"/>
<path id="Trazado_638_1_" class="st4" d="M466.65,592.15l-0.03,0.07c-0.73,1.57-0.58,3.33,0.4,4.8c1.69,2.4,5.13,3.69,5.13,3.69
	l5.74,2.6l-2.36,6.53c0,0-0.96,2.7-0.37,4.83c0.45,1.6,1.68,2.95,3.36,3.72c0.88,0.36,3.53,1.01,5.68-0.21
	c1.46-0.74,2.68-1.77,3.57-3.02c0.69-0.95,4.56-6.57,4.56-6.57l7.93,1.95c0,0,2.12,0.42,3.45,0.59c1.41,0.12,2.84-0.03,4.17-0.45
	c1.4-0.53,2.54-1.47,3.21-2.65c0.68-1.28,0.76-2.75,0.23-4.08c-0.48-1.19-1.71-2.75-4.37-4.08c-2.66-1.33-8.14-3.59-8.14-3.59
	s1.82-4.01,2.17-5.04c0.53-1.35,0.92-2.73,1.18-4.13c0.19-1.42-0.18-2.86-1.04-4.08c-1.12-1.41-1.77-1.74-3.65-2.28
	c-1.76-0.44-3.66-0.15-5.14,0.78c-1.56,1-2.86,2.27-3.81,3.73c-0.93,1.44-4.09,5.94-4.13,5.94c-0.04,0-7.01-1.84-8.51-2.01
	c-1.5-0.17-2.5-0.47-4.18-0.21c-1.54,0.21-2.94,0.86-3.99,1.85C467.31,591.22,466.96,591.67,466.65,592.15z"/>
<path id="Trazado_639_1_" class="st3" d="M457.89,591.89l-0.03,0.07c-0.73,1.57-0.58,3.33,0.4,4.8c1.69,2.4,5.13,3.69,5.13,3.69
	l5.74,2.6l-2.36,6.53c0,0-0.96,2.7-0.37,4.83c0.45,1.6,1.68,2.95,3.36,3.72c0.88,0.36,3.53,1.01,5.68-0.21
	c1.46-0.74,2.68-1.77,3.57-3.02c0.69-0.95,4.56-6.57,4.56-6.57l7.93,1.95c0,0,2.12,0.42,3.45,0.59c1.41,0.12,2.84-0.03,4.17-0.45
	c1.4-0.53,2.54-1.47,3.21-2.65c0.68-1.28,0.76-2.75,0.23-4.08c-0.48-1.19-1.71-2.75-4.37-4.08s-8.14-3.59-8.14-3.59
	s1.82-4.01,2.17-5.04c0.53-1.35,0.92-2.73,1.18-4.13c0.19-1.42-0.18-2.86-1.04-4.08c-1.12-1.41-1.77-1.74-3.65-2.28
	c-1.76-0.44-3.66-0.15-5.14,0.78c-1.56,1-2.86,2.27-3.81,3.73c-0.93,1.44-4.09,5.94-4.13,5.94c-0.04,0-7.01-1.84-8.51-2.01
	c-1.5-0.17-2.5-0.47-4.18-0.21c-1.54,0.21-2.94,0.86-3.99,1.85C458.55,590.97,458.2,591.42,457.89,591.89z"/>
</svg>
