<?xml version="1.0" encoding="UTF-8"?>
<svg width="1024px" height="138px" viewBox="0 0 1024 138" version="1.1" xmlns="http://www.w3.org/2000/svg" xmlns:xlink="http://www.w3.org/1999/xlink">
    <!-- Generator: Sketch 52.6 (67491) - http://www.bohemiancoding.com/sketch -->
    <title>divider_peaks@1.5x</title>
    <desc>Created with Sketch.</desc>
    <g id="Desktop" stroke="none" stroke-width="1" fill="none" fill-rule="evenodd">
        <g id="01-HOME-/-Buy" transform="translate(0.000000, -664.000000)" fill="#FFFFFF">
            <polygon id="divider_peaks" points="1074.87188 664 1047.99573 674.036865 1021.12208 664 994.247941 674.036865 967.374801 664 940.502665 674.036865 913.628522 664 886.755884 674.036865 859.882243 664 833.009103 674.036865 806.137469 664 779.265836 674.036865 752.395206 664 725.523572 674.036865 698.652942 664 671.780806 674.036865 644.910176 664 618.038041 674.036865 591.165905 664 564.294271 674.036865 537.422637 664 510.550501 674.036865 483.67937 664 456.80623 674.036865 429.9356 664 403.064468 674.036865 376.192834 664 349.321201 674.036865 322.449065 664 295.576929 674.036865 268.705295 664 241.834665 674.036865 214.964036 664 188.093908 674.036865 161.223278 664 134.351142 674.036865 107.481014 664 80.6113878 674.036865 53.739754 664 26.8696261 674.036865 0 664 0 802 1102 802 1101.74903 674.036865"></polygon>
        </g>
    </g>
</svg>