<?xml version="1.0" encoding="utf-8"?>
<!-- Generator: Adobe Illustrator 24.2.3, SVG Export Plug-In . SVG Version: 6.00 Build 0)  -->
<svg version="1.1" id="Flat" xmlns="http://www.w3.org/2000/svg" xmlns:xlink="http://www.w3.org/1999/xlink" x="0px" y="0px"
	 viewBox="0 0 100 100" style="enable-background:new 0 0 100 100;" xml:space="preserve">
<style type="text/css">
	.st0{fill:#454A6D;}
	.st1{fill:#30354C;}
	.st2{fill:#E8505B;}
	.st3{fill:#EAEEF4;}
</style>
<g>
	<path class="st0" d="M89.1,21.6v56.7c0,1.1-0.9,2-2,2H12.9c-1.1,0-2-0.9-2-2V21.6c0-1.1,0.9-2,2-2h74.2
		C88.2,19.6,89.1,20.5,89.1,21.6z"/>
	<path class="st1" d="M89.1,21.6v56.7c0,1.1-0.9,2-2,2h-3.6V19.6h3.6C88.2,19.6,89.1,20.5,89.1,21.6z"/>
	<path class="st2" d="M45.4,57L56,51.4c1.1-0.6,1.1-2.2,0-2.9L45.4,43c-1.1-0.6-2.4,0.2-2.4,1.4v11.2C43,56.8,44.3,57.6,45.4,57z"/>
	<g>
		<path class="st3" d="M25.9,33.8h-5.9c-1.1,0-2-0.9-2-2v-3.6c0-1.1,0.9-2,2-2h5.9c1.1,0,2,0.9,2,2v3.6C27.9,32.9,27,33.8,25.9,33.8
			z"/>
		<path class="st3" d="M25.9,47.2h-5.9c-1.1,0-2-0.9-2-2v-3.6c0-1.1,0.9-2,2-2h5.9c1.1,0,2,0.9,2,2v3.6C27.9,46.3,27,47.2,25.9,47.2
			z"/>
		<path class="st3" d="M25.9,60.5h-5.9c-1.1,0-2-0.9-2-2v-3.6c0-1.1,0.9-2,2-2h5.9c1.1,0,2,0.9,2,2v3.6C27.9,59.6,27,60.5,25.9,60.5
			z"/>
		<path class="st3" d="M25.9,73.8h-5.9c-1.1,0-2-0.9-2-2v-3.6c0-1.1,0.9-2,2-2h5.9c1.1,0,2,0.9,2,2v3.6C27.9,72.9,27,73.8,25.9,73.8
			z"/>
		<path class="st3" d="M80.1,33.8h-5.9c-1.1,0-2-0.9-2-2v-3.6c0-1.1,0.9-2,2-2h5.9c1.1,0,2,0.9,2,2v3.6
			C82.1,32.9,81.2,33.8,80.1,33.8z"/>
		<path class="st3" d="M80.1,47.2h-5.9c-1.1,0-2-0.9-2-2v-3.6c0-1.1,0.9-2,2-2h5.9c1.1,0,2,0.9,2,2v3.6
			C82.1,46.2,81.2,47.2,80.1,47.2z"/>
		<path class="st3" d="M80.1,60.5h-5.9c-1.1,0-2-0.9-2-2v-3.6c0-1.1,0.9-2,2-2h5.9c1.1,0,2,0.9,2,2v3.6
			C82.1,59.6,81.2,60.5,80.1,60.5z"/>
		<path class="st3" d="M80.1,73.8h-5.9c-1.1,0-2-0.9-2-2v-3.6c0-1.1,0.9-2,2-2h5.9c1.1,0,2,0.9,2,2v3.6
			C82.1,72.9,81.2,73.8,80.1,73.8z"/>
	</g>
</g>
</svg>
